…
## Examples

Use swadlr if you need to programmatically retrieve a time series from
SWADL:

``` r
library(swadlr)

get_swadl(
  indicator = "hourly_wage_percentiles",
  measure = "nominal_wage",
  dimension = list("wage_percentile" = "wage_p50")
)
#> # A tibble: 53 × 4
#>    date       value geography wage_percentile
#>    <date>     <dbl> <chr>     <chr>          
#>  1 1973-01-01  3.35 national  wage_p50       
#>  2 1974-01-01  3.62 national  wage_p50       
#>  3 1975-01-01  3.94 national  wage_p50       
#>  4 1976-01-01  4.12 national  wage_p50       
#>  5 1977-01-01  4.41 national  wage_p50       
#>  6 1978-01-01  4.73 national  wage_p50       
#>  7 1979-01-01  5.11 national  wage_p50       
#>  8 1980-01-01  5.63 national  wage_p50       
#>  9 1981-01-01  6.10 national  wage_p50       
#> 10 1982-01-01  6.46 national  wage_p50       
#> # ℹ 43 more rows
```
…
