…
# Access specific components
info$measures
#> # A tibble: 2 × 3
#>   id             name                     format
#>   <chr>          <chr>                    <chr> 
#> 1 real_wage_2025 Real hourly wage (2025$) dollar
#> 2 nominal_wage   Nominal hourly wage      dollar
info$availability
#> # A tibble: 48 × 6
#>    date_interval measure_id   geo_level dimensions         date_start date_end  
#>    <chr>         <chr>        <chr>     <chr>              <date>     <date>    
#>  1 year          nominal_wage division  education × wage_… 1978-01-01 2025-01-01
#>  2 year          nominal_wage division  gender × wage_per… 1978-01-01 2025-01-01
#>  3 year          nominal_wage division  race × wage_perce… 1978-01-01 2025-01-01
#>  4 year          nominal_wage division  wage_percentile    1978-01-01 2025-01-01
#>  5 year          nominal_wage national  age_group × gende… 1973-01-01 2025-01-01
#>  6 year          nominal_wage national  age_group × race … 1973-01-01 2025-01-01
#>  7 year          nominal_wage national  age_group × wage_… 1973-01-01 2025-01-01
#>  8 year          nominal_wage national  education × wage_… 1973-01-01 2025-01-01
#>  9 year          nominal_wage national  education × gende… 1973-01-01 2025-01-01
#> 10 year          nominal_wage national  gender × wage_per… 1973-01-01 2025-01-01
#> # ℹ 38 more rows
…
